Projet R M1 MAS
…
3. Trouver le(s) artiste(s) (Artist Name) ayant la popularit moyenne la plus leve parmi ceux qui ont plus de 10 titres inclus dans tracks.

#Trions d'abord les artistes ayant plus de 10 titres inclus dans tracks.
artiste_avec_plus_de_10_titres <- tracks %>%
  count(Artist.Name) %>%
  filter(n>10) %>%
  arrange(desc(n))

tracks %>%
  filter(Artist.Name %in% artiste_avec_plus_de_10_titres$Artist.Name) %>% # l'aide du filtre, nous rcuprons seulement les artistes ayant plus de 10 titres dans tracks
  group_by(Artist.Name) %>%
  summarise(mean_popularity=mean(Popularity)) %>%
  arrange(desc(mean_popularity))

## # A tibble: 123 x 2
##    Artist.Name       mean_popularity
##    <chr>                       <dbl>
##  1 Ed Sheeran                   77.3
##  2 Young Stoner Life            73.5
##  3 Coldplay                     72.7
##  4 Arctic Monkeys               71.1
##  5 Taylor Swift                 70  
##  6 AC/DC                        69.5
##  7 Radiohead                    67.6
##  8 The White Stripes            67.4
##  9 System Of A Down             67.3
## 10 The Clash                    67.1
## # ... with 113 more rows
…
tracks5 <- tracks %>%  
           drop_na()%>% 
           filter(Track.Name%in%top500$Album) %>% 
           group_by(Artist.Name,Track.Name) %>% # ici on trouve la popularit moyenne, la dansabilit moyenne des artistes ayant les tracks doublons, donc il y a 62 chansons, if faut qu'on groupe_by(Artist.Name,Track.Name) car un artiste peut avoir plus d'une chanson.
           summarise(mean_popularity=mean(Popularity),
                     mean_danceability=mean(danceability)
           )

## `summarise()` has grouped output by 'Artist.Name'. You can override using the `.groups` argument.

chansons_tracks_Top500 <- left_join(tracks5,top500,by=c("Track.Name"="Album")) %>% select(Artist.Name, Number, Track.Name, Year, mean_popularity, mean_danceability) %>% arrange(Number, Track.Name)
chansons_tracks_Top500

## # A tibble: 62 x 6
## # Groups:   Artist.Name [61]
##    Artist.Name      Number Track.Name   Year mean_popularity mean_danceability
##    <chr>             <int> <chr>       <int>           <dbl>             <dbl>
##  1 Dennis Lloyd         17 Nevermind    1991              40             0.601
##  2 Sonn                 26 Rumours      1977              49             0.75 
##  3 bl00dwave            30 Blue         1971              33             0.626
##  4 Shadow and Light     30 Blue         1971              11             0.658
##  5 Thyla                30 Blue         1971              23             0.566
##  6 Motrhead       33 Ramones      1976              44             0.387
##  7 Inter Arma           76 Purple Rain  1984              33             0.438
##  8 Prince               76 Purple Rain  1984              75             0.367
##  9 Ben Platt            80 Imagine      1971              72             0.541
## 10 Josh Gray            80 Imagine      1971              46             0.639
## # ... with 52 more rows
…
